https://pokeapi.co/api/v2/move/

{"count":844,"next":"https://pokeapi.co/api/v2/move/?offset=20&limit=20","previous":null,"results":[{"name":"pound","url":"https://pokeapi.co/api/v2/move/1/"},{"name":"karate-chop","url":"https://pokeapi.co/api/v2/move/2/"},{"name":"double-slap","url":"https://pokeapi.co/api/v2/move/3/"},{"name":"comet-punch","url":"https://pokeapi.co/api/v2/move/4/"},{"name":"mega-punch","url":"https://pokeapi.co/api/v2/move/5/"},{"name":"pay-day","url":"https://pokeapi.co/api/v2/move/6/"},{"name":"fire-punch","url":"https://pokeapi.co/api/v2/move/7/"},{"name":"ice-punch","url":"https://pokeapi.co/api/v2/move/8/"},{"name":"thunder-punch","url":"https://pokeapi.co/api/v2/move/9/"},{"name":"scratch","url":"https://pokeapi.co/api/v2/move/10/"},{"name":"vice-grip","url":"https://pokeapi.co/api/v2/move/11/"},{"name":"guillotine","url":"https://pokeapi.co/api/v2/move/12/"},{"name":"razor-wind","url":"https://pokeapi.co/api/v2/move/13/"},{"name":"swords-dance","url":"https://pokeapi.co/api/v2/move/14/"},{"name":"cut","url":"https://pokeapi.co/api/v2/move/15/"},{"name":"gust","url":"https://pokeapi.co/api/v2/move/16/"},{"name":"wing-attack","url":"https://pokeapi.co/api/v2/move/17/"},{"name":"whirlwind","url":"https://pokeapi.co/api/v2/move/18/"},{"name":"fly","url":"https://pokeapi.co/api/v2/move/19/"},{"name":"bind","url":"https://pokeapi.co/api/v2/move/20/"}]}



1-------------

https://pokeapi.co/api/v2/berry/


{"count":64,"next":"https://pokeapi.co/api/v2/berry/?offset=20&limit=20","previous":null,"results":[{"name":"cheri","url":"https://pokeapi.co/api/v2/berry/1/"},{"name":"chesto","url":"https://pokeapi.co/api/v2/berry/2/"},{"name":"pecha","url":"https://pokeapi.co/api/v2/berry/3/"},{"name":"rawst","url":"https://pokeapi.co/api/v2/berry/4/"},{"name":"aspear","url":"https://pokeapi.co/api/v2/berry/5/"},{"name":"leppa","url":"https://pokeapi.co/api/v2/berry/6/"},{"name":"oran","url":"https://pokeapi.co/api/v2/berry/7/"},{"name":"persim","url":"https://pokeapi.co/api/v2/berry/8/"},{"name":"lum","url":"https://pokeapi.co/api/v2/berry/9/"},{"name":"sitrus","url":"https://pokeapi.co/api/v2/berry/10/"},{"name":"figy","url":"https://pokeapi.co/api/v2/berry/11/"},{"name":"wiki","url":"https://pokeapi.co/api/v2/berry/12/"},{"name":"mago","url":"https://pokeapi.co/api/v2/berry/13/"},{"name":"aguav","url":"https://pokeapi.co/api/v2/berry/14/"},{"name":"iapapa","url":"https://pokeapi.co/api/v2/berry/15/"},{"name":"razz","url":"https://pokeapi.co/api/v2/berry/16/"},{"name":"bluk","url":"https://pokeapi.co/api/v2/berry/17/"},{"name":"nanab","url":"https://pokeapi.co/api/v2/berry/18/"},{"name":"wepear","url":"https://pokeapi.co/api/v2/berry/19/"},{"name":"pinap","url":"https://pokeapi.co/api/v2/berry/20/"}]}

2-------------------



https://pokeapi.co/api/v2/egg-group/


{"count":15,"next":null,"previous":null,"results":[{"name":"monster","url":"https://pokeapi.co/api/v2/egg-group/1/"},{"name":"water1","url":"https://pokeapi.co/api/v2/egg-group/2/"},{"name":"bug","url":"https://pokeapi.co/api/v2/egg-group/3/"},{"name":"flying","url":"https://pokeapi.co/api/v2/egg-group/4/"},{"name":"ground","url":"https://pokeapi.co/api/v2/egg-group/5/"},{"name":"fairy","url":"https://pokeapi.co/api/v2/egg-group/6/"},{"name":"plant","url":"https://pokeapi.co/api/v2/egg-group/7/"},{"name":"humanshape","url":"https://pokeapi.co/api/v2/egg-group/8/"},{"name":"water3","url":"https://pokeapi.co/api/v2/egg-group/9/"},{"name":"mineral","url":"https://pokeapi.co/api/v2/egg-group/10/"},{"name":"indeterminate","url":"https://pokeapi.co/api/v2/egg-group/11/"},{"name":"water2","url":"https://pokeapi.co/api/v2/egg-group/12/"},{"name":"ditto","url":"https://pokeapi.co/api/v2/egg-group/13/"},{"name":"dragon","url":"https://pokeapi.co/api/v2/egg-group/14/"},{"name":"no-eggs","url":"https://pokeapi.co/api/v2/egg-group/15/"}]}

3---------------


https://pokeapi.co/api/v2/item/


{"count":1607,"next":"https://pokeapi.co/api/v2/item/?offset=20&limit=20","previous":null,"results":[{"name":"master-ball","url":"https://pokeapi.co/api/v2/item/1/"},{"name":"ultra-ball","url":"https://pokeapi.co/api/v2/item/2/"},{"name":"great-ball","url":"https://pokeapi.co/api/v2/item/3/"},{"name":"poke-ball","url":"https://pokeapi.co/api/v2/item/4/"},{"name":"safari-ball","url":"https://pokeapi.co/api/v2/item/5/"},{"name":"net-ball","url":"https://pokeapi.co/api/v2/item/6/"},{"name":"dive-ball","url":"https://pokeapi.co/api/v2/item/7/"},{"name":"nest-ball","url":"https://pokeapi.co/api/v2/item/8/"},{"name":"repeat-ball","url":"https://pokeapi.co/api/v2/item/9/"},{"name":"timer-ball","url":"https://pokeapi.co/api/v2/item/10/"},{"name":"luxury-ball","url":"https://pokeapi.co/api/v2/item/11/"},{"name":"premier-ball","url":"https://pokeapi.co/api/v2/item/12/"},{"name":"dusk-ball","url":"https://pokeapi.co/api/v2/item/13/"},{"name":"heal-ball","url":"https://pokeapi.co/api/v2/item/14/"},{"name":"quick-ball","url":"https://pokeapi.co/api/v2/item/15/"},{"name":"cherish-ball","url":"https://pokeapi.co/api/v2/item/16/"},{"name":"potion","url":"https://pokeapi.co/api/v2/item/17/"},{"name":"antidote","url":"https://pokeapi.co/api/v2/item/18/"},{"name":"burn-heal","url":"https://pokeapi.co/api/v2/item/19/"},{"name":"ice-heal","url":"https://pokeapi.co/api/v2/item/20/"}]}
4----------------------


https://pokeapi.co/api/v2/pokemon/


{"count":1154,"next":"https://pokeapi.co/api/v2/pokemon/?offset=20&limit=20","previous":null,"results":[{"name":"bulbasaur","url":"https://pokeapi.co/api/v2/pokemon/1/"},{"name":"ivysaur","url":"https://pokeapi.co/api/v2/pokemon/2/"},{"name":"venusaur","url":"https://pokeapi.co/api/v2/pokemon/3/"},{"name":"charmander","url":"https://pokeapi.co/api/v2/pokemon/4/"},{"name":"charmeleon","url":"https://pokeapi.co/api/v2/pokemon/5/"},{"name":"charizard","url":"https://pokeapi.co/api/v2/pokemon/6/"},{"name":"squirtle","url":"https://pokeapi.co/api/v2/pokemon/7/"},{"name":"wartortle","url":"https://pokeapi.co/api/v2/pokemon/8/"},{"name":"blastoise","url":"https://pokeapi.co/api/v2/pokemon/9/"},{"name":"caterpie","url":"https://pokeapi.co/api/v2/pokemon/10/"},{"name":"metapod","url":"https://pokeapi.co/api/v2/pokemon/11/"},{"name":"butterfree","url":"https://pokeapi.co/api/v2/pokemon/12/"},{"name":"weedle","url":"https://pokeapi.co/api/v2/pokemon/13/"},{"name":"kakuna","url":"https://pokeapi.co/api/v2/pokemon/14/"},{"name":"beedrill","url":"https://pokeapi.co/api/v2/pokemon/15/"},{"name":"pidgey","url":"https://pokeapi.co/api/v2/pokemon/16/"},{"name":"pidgeotto","url":"https://pokeapi.co/api/v2/pokemon/17/"},{"name":"pidgeot","url":"https://pokeapi.co/api/v2/pokemon/18/"},{"name":"rattata","url":"https://pokeapi.co/api/v2/pokemon/19/"},{"name":"raticate","url":"https://pokeapi.co/api/v2/pokemon/20/"}]}

5----------------